{
  "$schema": "../../node_modules/ng-packagr/ng-package.schema.json",
  "dest": "../../dist/osmd-angular",
  "lib": {
    "entryFile": "src/public-api.ts"
  },
  "whitelistedNonPeerDependencies": [
    "guid-typescript",
    "opensheetmusicdisplay"
  ]
}
